第九組：TF-IDF 與 Bigram 情緒分析（Treasure Island）
…
sekiro

## # A tibble: 76 x 10
##    artTitle artDate    artTime artUrl artPoster artCat commentNum  push
##    <chr>    <date>     <time>  <chr>  <chr>     <chr>       <int> <int>
##  1 [閒聊]隻狼的~ 2019-03-19 14:37   https~ tom80727  PlayS~        107    64
##  2 [情報]隻狼最~ 2019-03-20 02:35   https~ howerlai~ PlayS~         64    48
##  3 [實況]隻狼日~ 2019-03-21 06:49   https~ lovelyli~ PlayS~          1     1
##  4 [實況]Mer~ 2019-03-21 07:36   https~ chi1206   PlayS~          0     0
##  5 [實況]小美S~ 2019-03-21 07:50   https~ st12231   PlayS~          0     0
##  6 [問題]請問隻~ 2019-03-21 14:09   https~ AkaiNami~ PlayS~          8     3
##  7 [實況]【塔利~ 2019-03-21 20:01   https~ sirakawa~ PlayS~          3     2
##  8 [問題]ps4~ 2019-03-22 04:15   https~ willie78~ PlayS~        145    33
##  9 [問題]隻狼是~ 2019-03-22 10:56   https~ david0426 PlayS~         50    33
## 10 [心得]手殘的~ 2019-03-22 13:27   https~ nobody11~ PlayS~         58    28
## # ... with 66 more rows, and 2 more variables: boo <int>, sentence <chr>
…
2.斷詞與整理斷詞結果

# 進行斷詞，並計算各詞彙在各文章中出現的次數
sekiro_words <- sekiro_sentences %>%
  unnest_tokens(word, sentence, token=chi_tokenizer) %>%
  filter(!str_detect(word, regex("[0-9a-zA-Z]"))) %>%
  count(artUrl, word, sort = TRUE)
sekiro_words

## # A tibble: 5,916 x 3
##    artUrl                                                     word       n
##    <fct>                                                      <chr>  <int>
##  1 https://www.ptt.cc/bbs/PlayStation/M.1553688397.A.FB5.html 遊戲      27
##  2 https://www.ptt.cc/bbs/PlayStation/M.1553512835.A.A24.html 可以      14
##  3 https://www.ptt.cc/bbs/PlayStation/M.1553688397.A.FB5.html 玩家      14
##  4 https://www.ptt.cc/bbs/Gossiping/M.1553264860.A.480.html   遊戲      13
##  5 https://www.ptt.cc/bbs/PlayStation/M.1553402708.A.1F4.html 攻擊      13
##  6 https://www.ptt.cc/bbs/PlayStation/M.1553491058.A.334.html 雷雷雷    13
##  7 https://www.ptt.cc/bbs/PlayStation/M.1553402708.A.1F4.html 可以      11
##  8 https://www.ptt.cc/bbs/PlayStation/M.1553473876.A.B39.html 體幹值    11
##  9 https://www.ptt.cc/bbs/Gossiping/M.1553264860.A.480.html   敵人      10
## 10 https://www.ptt.cc/bbs/PlayStation/M.1553343706.A.169.html 識破      10
## # ... with 5,906 more rows

# 計算每篇文章包含的詞數
total_words <- sekiro_words %>% 
  group_by(artUrl) %>% 
  summarize(total = sum(n))
total_words

## # A tibble: 76 x 2
##    artUrl                                                   total
##    <fct>                                                    <int>
##  1 https://www.ptt.cc/bbs/Gossiping/M.1553141696.A.110.html    16
##  2 https://www.ptt.cc/bbs/Gossiping/M.1553183725.A.2F0.html    11
##  3 https://www.ptt.cc/bbs/Gossiping/M.1553211841.A.87E.html    10
##  4 https://www.ptt.cc/bbs/Gossiping/M.1553232748.A.38F.html    22
##  5 https://www.ptt.cc/bbs/Gossiping/M.1553238677.A.654.html    23
##  6 https://www.ptt.cc/bbs/Gossiping/M.1553264860.A.480.html   390
##  7 https://www.ptt.cc/bbs/Gossiping/M.1553284035.A.9B3.html    45
##  8 https://www.ptt.cc/bbs/Gossiping/M.1553313699.A.74F.html    21
##  9 https://www.ptt.cc/bbs/Gossiping/M.1553336989.A.41E.html    24
## 10 https://www.ptt.cc/bbs/Gossiping/M.1553346124.A.0E3.html    20
## # ... with 66 more rows

# 合併 devotion_words（每個詞彙在每個文章中出現的次數）
# 與 total_words（每篇文章的詞數）
# 新增各個詞彙在所有詞彙中的總數欄位
sekiro_words <- left_join(sekiro_words, total_words)

## Joining, by = "artUrl"

sekiro_words

## # A tibble: 5,916 x 4
##    artUrl                                                word      n total
##    <fct>                                                 <chr> <int> <int>
##  1 https://www.ptt.cc/bbs/PlayStation/M.1553688397.A.FB~ 遊戲     27   568
##  2 https://www.ptt.cc/bbs/PlayStation/M.1553512835.A.A2~ 可以     14   621
##  3 https://www.ptt.cc/bbs/PlayStation/M.1553688397.A.FB~ 玩家     14   568
##  4 https://www.ptt.cc/bbs/Gossiping/M.1553264860.A.480.~ 遊戲     13   390
##  5 https://www.ptt.cc/bbs/PlayStation/M.1553402708.A.1F~ 攻擊     13   397
##  6 https://www.ptt.cc/bbs/PlayStation/M.1553491058.A.33~ 雷雷雷~    13   393
##  7 https://www.ptt.cc/bbs/PlayStation/M.1553402708.A.1F~ 可以     11   397
##  8 https://www.ptt.cc/bbs/PlayStation/M.1553473876.A.B3~ 體幹值~    11   209
##  9 https://www.ptt.cc/bbs/Gossiping/M.1553264860.A.480.~ 敵人     10   390
## 10 https://www.ptt.cc/bbs/PlayStation/M.1553343706.A.16~ 識破     10   513
## # ... with 5,906 more rows

計算 tf-idf

# 以每篇文章爲單位，計算每個詞彙在的tf-idf值
sekiro_words_tf_idf <- sekiro_words %>%
  bind_tf_idf(word, artUrl, n)
sekiro_words_tf_idf

## # A tibble: 5,916 x 7
##    artUrl                            word      n total     tf   idf tf_idf
##    <fct>                             <chr> <int> <int>  <dbl> <dbl>  <dbl>
##  1 https://www.ptt.cc/bbs/PlayStati~ 遊戲     27   568 0.0475 0.642 0.0305
##  2 https://www.ptt.cc/bbs/PlayStati~ 可以     14   621 0.0225 0.865 0.0195
##  3 https://www.ptt.cc/bbs/PlayStati~ 玩家     14   568 0.0246 1.62  0.0400
##  4 https://www.ptt.cc/bbs/Gossiping~ 遊戲     13   390 0.0333 0.642 0.0214
##  5 https://www.ptt.cc/bbs/PlayStati~ 攻擊     13   397 0.0327 2.13  0.0699
##  6 https://www.ptt.cc/bbs/PlayStati~ 雷雷雷~    13   393 0.0331 4.33  0.143 
##  7 https://www.ptt.cc/bbs/PlayStati~ 可以     11   397 0.0277 0.865 0.0240
##  8 https://www.ptt.cc/bbs/PlayStati~ 體幹值~    11   209 0.0526 2.94  0.155 
##  9 https://www.ptt.cc/bbs/Gossiping~ 敵人     10   390 0.0256 1.69  0.0434
## 10 https://www.ptt.cc/bbs/PlayStati~ 識破     10   513 0.0195 2.72  0.0530
## # ... with 5,906 more rows

# 選出每篇文章，tf-idf最大的十個詞
sekiro_words_tf_idf %>% 
  group_by(artUrl) %>%
  top_n(10) %>%
  arrange(desc(artUrl))

## Selecting by tf_idf

## # A tibble: 1,075 x 7
## # Groups:   artUrl [76]
##    artUrl                            word      n total     tf   idf tf_idf
##    <fct>                             <chr> <int> <int>  <dbl> <dbl>  <dbl>
##  1 https://www.ptt.cc/bbs/PlayStati~ 直播      2    39 0.0513  2.94 0.151 
##  2 https://www.ptt.cc/bbs/PlayStati~ 不長      1    39 0.0256  4.33 0.111 
##  3 https://www.ptt.cc/bbs/PlayStati~ 主播      1    39 0.0256  3.64 0.0933
##  4 https://www.ptt.cc/bbs/PlayStati~ 左右      1    39 0.0256  3.64 0.0933
##  5 https://www.ptt.cc/bbs/PlayStati~ 平日      1    39 0.0256  4.33 0.111 
##  6 https://www.ptt.cc/bbs/PlayStati~ 玩個      1    39 0.0256  4.33 0.111 
##  7 https://www.ptt.cc/bbs/PlayStati~ 流暢      1    39 0.0256  4.33 0.111 
##  8 https://www.ptt.cc/bbs/PlayStati~ 聊天      1    39 0.0256  3.64 0.0933
##  9 https://www.ptt.cc/bbs/PlayStati~ 當碼      1    39 0.0256  4.33 0.111 
## 10 https://www.ptt.cc/bbs/PlayStati~ 興趣      1    39 0.0256  3.64 0.0933
## # ... with 1,065 more rows

# 選每篇文章，tf-idf最大的十個詞，
# 並查看每個詞被選中的次數
sekiro_words_tf_idf %>% 
  group_by(artUrl) %>%
  top_n(10) %>%
  arrange(desc(artUrl)) %>%
  ungroup() %>%
  count(word, sort=TRUE)

## Selecting by tf_idf

## # A tibble: 1,008 x 2
##    word     nn
##    <chr> <int>
##  1 實況      4
##  2 有點      3
##  3 設定      3
##  4 最近      3
##  5 暗影      3
##  6 經驗      3
##  7 葦名      3
##  8 影片      3
##  9 雙死      3
## 10 一心      2
## # ... with 998 more rows
…
# 執行bigram分詞
sekiro_bigram <- sekiro %>%
  unnest_tokens(bigram, sentence, token = jieba_bigram)
sekiro_bigram

## # A tibble: 13,798 x 10
##    artTitle artDate    artTime artUrl artPoster artCat commentNum  push
##    <chr>    <date>     <time>  <chr>  <chr>     <chr>       <int> <int>
##  1 [閒聊]隻狼的~ 2019-03-19 14:37   https~ tom80727  PlayS~        107    64
##  2 [閒聊]隻狼的~ 2019-03-19 14:37   https~ tom80727  PlayS~        107    64
##  3 [閒聊]隻狼的~ 2019-03-19 14:37   https~ tom80727  PlayS~        107    64
##  4 [閒聊]隻狼的~ 2019-03-19 14:37   https~ tom80727  PlayS~        107    64
##  5 [閒聊]隻狼的~ 2019-03-19 14:37   https~ tom80727  PlayS~        107    64
##  6 [閒聊]隻狼的~ 2019-03-19 14:37   https~ tom80727  PlayS~        107    64
##  7 [閒聊]隻狼的~ 2019-03-19 14:37   https~ tom80727  PlayS~        107    64
##  8 [閒聊]隻狼的~ 2019-03-19 14:37   https~ tom80727  PlayS~        107    64
##  9 [閒聊]隻狼的~ 2019-03-19 14:37   https~ tom80727  PlayS~        107    64
## 10 [閒聊]隻狼的~ 2019-03-19 14:37   https~ tom80727  PlayS~        107    64
## # ... with 13,788 more rows, and 2 more variables: boo <int>, bigram <chr>

# 清楚包含英文或數字的bigram組合
# 計算每個組合出現的次數
sekiro_bigram %>%
  filter(!str_detect(bigram, regex("[0-9a-zA-Z]"))) %>%
  count(bigram, sort = TRUE)

## # A tibble: 10,743 x 2
##    bigram      n
##    <chr>   <int>
##  1 隻 狼     141
##  2 都 是      24
##  3 狼 的      22
##  4 遊戲 的    21
##  5 的 遊戲    20
##  6 也 是      18
##  7 的 時候    17
##  8 這 隻      15
##  9 的 是      14
## 10 不 知道    13
## # ... with 10,733 more rows
…
# 執行ngram分詞
sekiro_ngram_3 <- sekiro %>%
  unnest_tokens(ngrams, sentence, token = jieba_ngram_3)
sekiro_ngram_3 %>%
  filter(!str_detect(ngrams, regex("[0-9a-zA-Z]"))) %>%
  count(ngrams, sort = TRUE)

## # A tibble: 11,817 x 2
##    ngrams                   n
##    <chr>                <int>
##  1 隻 狼 的                22
##  2 狼 暗影 雙死            13
##  3 隻 狼 暗影              13
##  4 的 隻 狼                10
##  5 玩 隻 狼                 9
##  6 雷雷雷 雷雷雷 雷雷雷     9
##  7 了 隻 狼                 6
##  8 不 死 斬                 5
##  9 是 隻 狼                 5
## 10 中文 今天 要播           4
## # ... with 11,807 more rows
…
##  [1] "不"       "未"       "未必"     "毫不"     "決不"     "沒有"    
##  [7] "沒"       "還沒有"   "還沒"     "還不"     "從來沒有" "從來沒"  
## [13] "從來不"   "從不"     "非"

# remove the stop words in bigram
sekiro_bigram %>%
  filter(!str_detect(bigram, regex("[0-9a-zA-Z]"))) %>%
  separate(bigram, c("word1", "word2"), sep = " ") %>% 
  filter(!(word1 %in% stop_words), !(word2 %in% stop_words)) %>%
  count(word1, word2, sort = TRUE) %>%
  unite_("bigram", c("word1","word2"), sep=" ")

## # A tibble: 5,535 x 2
##    bigram            n
##    <chr>         <int>
##  1 隻 狼           141
##  2 不 知道          13
##  3 血源 詛咒        13
##  4 狼 暗影          13
##  5 暗影 雙死        13
##  6 不 死            12
##  7 宮崎 英高        12
##  8 雷雷雷 雷雷雷    11
##  9 玩 隻             9
## 10 都 會             9
## # ... with 5,525 more rows

# remove the stop words in ngram(n=3)
sekiro_ngram_3 %>%
  filter(!str_detect(ngrams, regex("[0-9a-zA-Z]"))) %>%
  separate(ngrams, c("word1", "word2", "word3"), sep = " ") %>% 
  filter(!(word1 %in% stop_words), !(word2 %in% stop_words), !(word3 %in% stop_words)) %>%
  count(word1, word2, word3, sort = TRUE) %>%
  unite_("ngrams", c("word1", "word2", "word3"), sep=" ")

## # A tibble: 3,984 x 2
##    ngrams                   n
##    <chr>                <int>
##  1 狼 暗影 雙死            13
##  2 隻 狼 暗影              13
##  3 玩 隻 狼                 9
##  4 雷雷雷 雷雷雷 雷雷雷     9
##  5 不 死 斬                 5
##  6 中文 今天 要播           4
##  7 這次 隻 狼               4
##  8 遊戲 隻 狼               4
##  9 一直 吃 鱉               3
## 10 我方 暈眩 直             3
## # ... with 3,974 more rows
…
計算使用自訂字典、刪除stop word之後的 tf-idf

# 篩選掉stop word
stop_words <- data.frame(word = stop_words) #轉換成df做anti_join
sekiro_words_ns <- sekiro_words %>% anti_join(.,stop_words,by = c("word"))

## Warning: Column `word` joining character vector and factor, coercing into
## character vector

# 以每篇文章爲單位，計算每個詞彙在的tf-idf值
sekiro_words_tf_idf_ns <- sekiro_words_ns %>%
  bind_tf_idf(word, artUrl, n)
sekiro_words_tf_idf_ns

## # A tibble: 5,352 x 7
##    artUrl                            word      n total     tf   idf tf_idf
##    <fct>                             <chr> <int> <int>  <dbl> <dbl>  <dbl>
##  1 https://www.ptt.cc/bbs/PlayStati~ 遊戲     27   568 0.0565 0.642 0.0363
##  2 https://www.ptt.cc/bbs/PlayStati~ 玩家     14   568 0.0293 1.62  0.0475
##  3 https://www.ptt.cc/bbs/Gossiping~ 遊戲     13   390 0.0360 0.642 0.0231
##  4 https://www.ptt.cc/bbs/PlayStati~ 攻擊     13   397 0.0375 2.13  0.0799
##  5 https://www.ptt.cc/bbs/PlayStati~ 雷雷雷~    13   393 0.0371 4.33  0.161 
##  6 https://www.ptt.cc/bbs/PlayStati~ 體幹值~    11   209 0.0615 2.94  0.181 
##  7 https://www.ptt.cc/bbs/Gossiping~ 敵人     10   390 0.0277 1.69  0.0469
##  8 https://www.ptt.cc/bbs/PlayStati~ 識破     10   513 0.0223 2.72  0.0606
##  9 https://www.ptt.cc/bbs/PlayStati~ 遊戲     10   446 0.0254 0.642 0.0163
## 10 https://www.ptt.cc/bbs/PlayStati~ 格檔      9   513 0.0200 3.23  0.0648
## # ... with 5,342 more rows

# 選出每篇文章，tf-idf最大的十個詞
sekiro_words_tf_idf_ns %>% 
  group_by(artUrl) %>%
  top_n(10) %>%
  arrange(desc(artUrl))

## Selecting by tf_idf

## # A tibble: 1,053 x 7
## # Groups:   artUrl [76]
##    artUrl                            word      n total     tf   idf tf_idf
##    <fct>                             <chr> <int> <int>  <dbl> <dbl>  <dbl>
##  1 https://www.ptt.cc/bbs/PlayStati~ 直播      2    39 0.0541  2.94 0.159 
##  2 https://www.ptt.cc/bbs/PlayStati~ 不長      1    39 0.0270  4.33 0.117 
##  3 https://www.ptt.cc/bbs/PlayStati~ 主播      1    39 0.0270  3.64 0.0983
##  4 https://www.ptt.cc/bbs/PlayStati~ 左右      1    39 0.0270  3.64 0.0983
##  5 https://www.ptt.cc/bbs/PlayStati~ 平日      1    39 0.0270  4.33 0.117 
##  6 https://www.ptt.cc/bbs/PlayStati~ 玩個      1    39 0.0270  4.33 0.117 
##  7 https://www.ptt.cc/bbs/PlayStati~ 流暢      1    39 0.0270  4.33 0.117 
##  8 https://www.ptt.cc/bbs/PlayStati~ 聊天      1    39 0.0270  3.64 0.0983
##  9 https://www.ptt.cc/bbs/PlayStati~ 當碼      1    39 0.0270  4.33 0.117 
## 10 https://www.ptt.cc/bbs/PlayStati~ 興趣      1    39 0.0270  3.64 0.0983
## # ... with 1,043 more rows

# 選每篇文章，tf-idf最大的十個詞，
# 並查看每個詞被選中的次數
sekiro_words_tf_idf_ns %>% 
  group_by(artUrl) %>%
  top_n(10) %>%
  arrange(desc(artUrl)) %>%
  ungroup() %>%
  count(word, sort=TRUE)

## Selecting by tf_idf

## # A tibble: 985 x 2
##    word     nn
##    <chr> <int>
##  1 實況      4
##  2 一直      3
##  3 有點      3
##  4 設定      3
##  5 最近      3
##  6 暗影      3
##  7 經驗      3
##  8 葦名      3
##  9 影片      3
## 10 雙死      3
## # ... with 975 more rows
…
# 執行bigram分詞
sekiro_bigram <- sekiro %>%
  unnest_tokens(bigram, sentence, token = jieba_bigram)
sekiro_bigram

## # A tibble: 13,616 x 10
##    artTitle artDate    artTime artUrl artPoster artCat commentNum  push
##    <chr>    <date>     <time>  <chr>  <chr>     <chr>       <int> <int>
##  1 [閒聊]隻狼的~ 2019-03-19 14:37   https~ tom80727  PlayS~        107    64
##  2 [閒聊]隻狼的~ 2019-03-19 14:37   https~ tom80727  PlayS~        107    64
##  3 [閒聊]隻狼的~ 2019-03-19 14:37   https~ tom80727  PlayS~        107    64
##  4 [閒聊]隻狼的~ 2019-03-19 14:37   https~ tom80727  PlayS~        107    64
##  5 [閒聊]隻狼的~ 2019-03-19 14:37   https~ tom80727  PlayS~        107    64
##  6 [閒聊]隻狼的~ 2019-03-19 14:37   https~ tom80727  PlayS~        107    64
##  7 [閒聊]隻狼的~ 2019-03-19 14:37   https~ tom80727  PlayS~        107    64
##  8 [閒聊]隻狼的~ 2019-03-19 14:37   https~ tom80727  PlayS~        107    64
##  9 [閒聊]隻狼的~ 2019-03-19 14:37   https~ tom80727  PlayS~        107    64
## 10 [閒聊]隻狼的~ 2019-03-19 14:37   https~ tom80727  PlayS~        107    64
## # ... with 13,606 more rows, and 2 more variables: boo <int>, bigram <chr>

# 將bigram拆成word1和word2
# 將包含英文字母或和數字的詞彙清除
bigrams_separated <- sekiro_bigram %>%
  filter(!str_detect(bigram, regex("[0-9a-zA-Z]"))) %>%
  separate(bigram, c("word1", "word2"), sep = " ")

# 並選出word2爲情緒詞的bigram
sekiro_sentiment_bigrams <- bigrams_separated %>%
  filter(!(word1 %in% stop_words), !(word2 %in% stop_words)) %>%
  filter(word2 %in% c(game_co_pos_words, game_co_neg_words))

sekiro_sentiment_bigrams

## # A tibble: 253 x 11
##    artTitle artDate    artTime artUrl artPoster artCat commentNum  push
##    <chr>    <date>     <time>  <chr>  <chr>     <chr>       <int> <int>
##  1 [閒聊]隻狼的~ 2019-03-19 14:37   https~ tom80727  PlayS~        107    64
##  2 [情報]隻狼最~ 2019-03-20 02:35   https~ howerlai~ PlayS~         64    48
##  3 [情報]隻狼最~ 2019-03-20 02:35   https~ howerlai~ PlayS~         64    48
##  4 [情報]隻狼最~ 2019-03-20 02:35   https~ howerlai~ PlayS~         64    48
##  5 [實況]Mer~ 2019-03-21 07:36   https~ chi1206   PlayS~          0     0
##  6 [實況]Mer~ 2019-03-21 07:36   https~ chi1206   PlayS~          0     0
##  7 [實況]小美S~ 2019-03-21 07:50   https~ st12231   PlayS~          0     0
##  8 [實況]小美S~ 2019-03-21 07:50   https~ st12231   PlayS~          0     0
##  9 [實況]【塔利~ 2019-03-21 20:01   https~ sirakawa~ PlayS~          3     2
## 10 [問題]ps4~ 2019-03-22 04:15   https~ willie78~ PlayS~        145    33
## # ... with 243 more rows, and 3 more variables: boo <int>, word1 <chr>,
## #   word2 <chr>

畫出情緒走勢圖. 詳細可以參考第五週的Code喔

# 選出word2中，有出現在情緒詞典中的詞彙
# 如果是正面詞彙則賦予： 情緒標籤爲"positive"、情緒值爲  1
# 如果是負面詞彙則賦予： 情緒標籤爲"negative"、情緒值爲 -1
sekiro_sentiment_bigrams <- sekiro_sentiment_bigrams %>%
  select(artDate, word1, word2) %>%
  mutate(sentiment=ifelse(word2 %in% game_co_pos_words,1,-1), sentiment_tag=ifelse(word2 %in% game_co_pos_words, "positive", "negative"))
sekiro_sentiment_bigrams

## # A tibble: 253 x 5
##    artDate    word1 word2 sentiment sentiment_tag
##    <date>     <chr> <chr>     <dbl> <chr>        
##  1 2019-03-19 代好  期待          1 positive     
##  2 2019-03-20 人能  體會          1 positive     
##  3 2019-03-20 如果  喜歡          1 positive     
##  4 2019-03-20 訂閱  支持          1 positive     
##  5 2019-03-21 遇上  問題         -1 negative     
##  6 2019-03-21 很    喜歡          1 positive     
##  7 2019-03-21 最    期待          1 positive     
##  8 2019-03-21 純    分享          1 positive     
##  9 2019-03-21 忍者  超棒          1 positive     
## 10 2019-03-22 滿多  問題         -1 negative     
## # ... with 243 more rows
…
使用否定字來改變詞彙的情緒值

# 查看 前面出現否定詞 和 後面的所有詞彙
bigrams_separated %>%
  filter(word1 %in% negation_words) %>%
  count(word1, word2, sort = TRUE)

## # A tibble: 109 x 3
##    word1 word2     n
##    <chr> <chr> <int>
##  1 不    知道     13
##  2 沒有  八卦      4
##  3 不    一樣      3
##  4 不    小心      3
##  5 不    出來      3
##  6 不    一定      2
##  7 不    太        2
##  8 不    建議      2
##  9 不    容易      2
## 10 不    貪刀      2
## # ... with 99 more rows
…
## # A tibble: 2 x 3
##   word1 word2     n
##   <chr> <chr> <int>
## 1 不    喜歡      2
## 2 沒    攻擊      2

# 如果在情緒詞前出現的是否定詞的話，則將他的情緒對調
sekiro_sentiment_bigrams_negated <- sekiro_sentiment_bigrams %>%
  mutate(sentiment=ifelse(word1 %in% negation_words, -1*sentiment, sentiment)) %>%
  mutate(sentiment_tag=ifelse(sentiment>0, "positive", "negative"))
sekiro_sentiment_bigrams_negated

## # A tibble: 253 x 5
##    artDate    word1 word2 sentiment sentiment_tag
##    <date>     <chr> <chr>     <dbl> <chr>        
##  1 2019-03-19 代好  期待          1 positive     
##  2 2019-03-20 人能  體會          1 positive     
##  3 2019-03-20 如果  喜歡          1 positive     
##  4 2019-03-20 訂閱  支持          1 positive     
##  5 2019-03-21 遇上  問題         -1 negative     
##  6 2019-03-21 很    喜歡          1 positive     
##  7 2019-03-21 最    期待          1 positive     
##  8 2019-03-21 純    分享          1 positive     
##  9 2019-03-21 忍者  超棒          1 positive     
## 10 2019-03-22 滿多  問題         -1 negative     
## # ... with 243 more rows
…
